<svg xmlns="http://www.w3.org/2000/svg" width="36" height="36" fill="none" viewBox="0 0 36 36">
    <path fill="#111F69" d="M36 18c0 9.941-8.059 18-18 18S0 27.941 0 18 8.059 0 18 0s18 8.059 18 18z"/>
    <path fill="#fff" d="M24.75 21.656V9.844A.842.842 0 0 0 23.906 9H12.375A3.376 3.376 0 0 0 9 12.375v11.25A3.376 3.376 0 0 0 12.375 27h11.531a.842.842 0 0 0 .844-.844v-.562a.85.85 0 0 0-.313-.658c-.148-.541-.148-2.084 0-2.626a.838.838 0 0 0 .313-.654zM13.5 13.711c0-.116.095-.211.21-.211h7.454c.116 0 .211.095.211.21v.704c0 .116-.095.211-.21.211H13.71a.212.212 0 0 1-.211-.21v-.704zm0 2.25c0-.116.095-.211.21-.211h7.454c.116 0 .211.095.211.21v.704c0 .116-.095.211-.21.211H13.71a.212.212 0 0 1-.211-.21v-.704zm8.909 8.789H12.375a1.124 1.124 0 0 1-1.125-1.125c0-.619.506-1.125 1.125-1.125h10.034a12.656 12.656 0 0 0 0 2.25z"/>
    <path fill="#F7F7F7" d="M26 17h1.5a.5.5 0 0 1 .5.5v2a.5.5 0 0 1-.5.5H26v-3zM26 13h1.5a.5.5 0 0 1 .5.5v2a.5.5 0 0 1-.5.5H26v-3z"/>
    <path fill="#F7F7F7" stroke="#111F69" d="M24 8.5h-.5v4h4a1 1 0 0 0 1-1v-2a1 1 0 0 0-1-1H24z"/>
    <path fill="#F7F7F7" d="M22 9h3v3h-3z"/>
</svg>
